Exploring Vancouver Street Trees – Joselyne MPAYIMANA
…
Data Preparation

Reshaping to Tidy Format

The raw trees_count.csv file stores neighbourhood names as column headers rather than as values in a column. This is wide format and not tidy. I used pivot_longer() to collapse all neighbourhood columns into two columns: one for neighbourhood name and one for tree count.

trees_count <- read.csv(file.path(data_path, "trees_count.csv"))

trees_count_longer <- pivot_longer(trees_count,
                                   cols        = 2:23,
                                   names_to    = "neighborhood",
                                   values_to   = "trees_count")
trees_count_longer

# A tibble: 6,226 × 3
   species neighborhood             trees_count
   <chr>   <chr>                          <int>
 1 ABIES   arbutus.ridge                      2
 2 ABIES   downtown                           1
 3 ABIES   dunbar.southlands                 11
 4 ABIES   fairview                           7
 5 ABIES   grandview.woodland                 4
 6 ABIES   hastings.sunrise                   4
 7 ABIES   kensington.cedar.cottage          15
 8 ABIES   kerrisdale                         5
 9 ABIES   killarney                          4
10 ABIES   kitsilano                         17
# ℹ 6,216 more rows

Similarly, trees_height_diam.csv stores height rank and diameter as rows in a single attribute column instead of as separate variables. I used pivot_wider() to give each attribute its own column.

trees_h_d <- read.csv(file.path(data_path, "trees_height_diam.csv"))

trees_h_d_wider <- pivot_wider(trees_h_d,
                                names_from  = "attribute",
                                values_from = "value")
trees_h_d_wider

# A tibble: 146,730 × 4
   tree_id species               diameter height_rank
     <int> <chr>                    <dbl>       <dbl>
 1   21422 COLUMNAR NORWAY MAPLE     22             4
 2   21425 COLUMNAR NORWAY MAPLE     19             4
 3   21427 SYCAMORE MAPLE            14.5           3
 4   21428 SYCAMORE MAPLE            16.5           4
 5   21432 ENGLISH OAK               28             5
 6   21434 SYCAMORE MAPLE            11             3
 7   21447 NORWAY MAPLE              17.2           4
 8   21452 SYCAMORE MAPLE            17             4
 9   21453 THREAD-LEAF CYPRESS        5             2
10   21455 SYCAMORE MAPLE            20             4
# ℹ 146,720 more rows
…
